INDEX VERSION 1.131+C:\Users\Usuario\Desktop\DAW\Programación\Portatil\Workspace\.metadata\.plugins\org.eclipse.jdt.core
1611153964.index
4268545935.index
300820216.index
386888378.index
2479749346.index
3785900202.index
1734706741.index
4177597334.index
274904739.index
2305550105.index
